Spotify Genre Popularity Through Time
…
Permanent wave stood out to me as a rock sub-genre that, until 2010, stood the test of time in terms of popularity.

But as an avid music fan, I’ve not heard of permanent wave at all! Digging into the dataset a little more … permanent wave actually had a few of my all-time favourite artists!

spotify %>% 
  filter(playlist_subgenre == "permanent wave") %>% 
  count(track_artist, sort = TRUE) 

## # A tibble: 471 x 2
##    track_artist              n
##    <chr>                 <int>
##  1 Muse                     19
##  2 The Smiths               19
##  3 David Bowie              13
##  4 Depeche Mode             12
##  5 The Cure                 12
##  6 Foo Fighters             11
##  7 New Order                11
##  8 Red Hot Chili Peppers    11
##  9 George Harrison           9
## 10 Oasis                     9
## # ... with 461 more rows
…
